Covid19 Analysis of Austria by Using R
…
covid <- read_csv2("CovidFaelle_Timeline.csv", col_types = cols(Time=col_date("%d.%m.%Y %H:%M:%S " )) )

## i Using "','" as decimal and "'.'" as grouping mark. Use `read_delim()` for more control.

Note: The source of data is the dashboard of Austrian Agency of Health and Food Security.

Moreover, we are using the data uploaded on October 02, 2021.

Dive into analysis

Let us look at the data table (which is in fact a tibble). Note that one of the advantage of having a tibble is that it shows us the dimension of the table as well as the data types of all the columns.

covid

## # A tibble: 5,840 x 12
##    Time       Bundesland       BundeslandID AnzEinwohner AnzahlFaelle AnzahlFaelleSum
##    <date>     <chr>                   <dbl>        <dbl>        <dbl>           <dbl>
##  1 2020-02-26 Burgenland                  1       296010            0               0
##  2 2020-02-26 Krnten                     2       562089            0               0
##  3 2020-02-26 Niedersterreich            3      1690879            0               0
##  4 2020-02-26 Obersterreich              4      1495608            0               0
##  5 2020-02-26 Salzburg                    5       560710            0               0
##  6 2020-02-26 Steiermark                  6      1247077            0               0
##  7 2020-02-26 Tirol                       7       760105            0               0
##  8 2020-02-26 Vorarlberg                  8       399237            0               0
##  9 2020-02-26 Wien                        9      1920949            1               1
## 10 2020-02-26 sterreich                 10      8932664            1               1
## # ... with 5,830 more rows, and 6 more variables: AnzahlFaelle7Tage <dbl>,
## #   SiebenTageInzidenzFaelle <dbl>, AnzahlTotTaeglich <dbl>,
## #   AnzahlTotSum <dbl>, AnzahlGeheiltTaeglich <dbl>, AnzahlGeheiltSum <dbl>
…
